[15:53:16] INFO: Umbra 3 Optimizer version 3.3.22  (build: aa99894236119ba2e0eac5ca04d0133b3067a375)
[15:53:16] INFO: T: 20 O: 5 H: 0.25 B: 100
[15:53:16] INFO: Tile grid 24x4x24 (at -12,0,-12) created for scene: 36 tiles (0 empties not included) in 0.133 seconds
[15:53:16] INFO: Using 8 threads to compute 36 tiles, cache 4096 MB
[15:53:18] INFO: Tile processing complete, computed 36 tiles
[15:53:18] INFO: Strict view volumes: no
[15:53:18] INFO: Filtered 0/1 inside clusters
[15:53:18] INFO: Filtered 0/1 global clusters
[15:53:18] INFO: 156/156 cells reachable after global analysis
[15:53:18] INFO: collapsed leaf tiles 36 => 2
[15:53:18] INFO: Generating LOD tiles using 8 threads
[15:53:19] INFO: Connecting LOD tiles
[15:53:19] INFO: Compressing lists
[15:53:19] INFO: Average index range size: 1.00
[15:53:19] INFO: object list: 0 B, cluster list: 0 B
[15:53:19] INFO: created tome with 3 tiles, 0 targets and 0 gates
[15:53:19] INFO: Checking cache...
[15:53:19] INFO: Cache check finished
[15:53:20] DEBUG: Total allocations 139781, peak 1413 (size 18 MB 885 kB 499 B)
